<?xml version="1.0" encoding="utf-8"?>
<!-- Generator: Adobe Illustrator 18.1.0, SVG Export Plug-In . SVG Version: 6.00 Build 0)  -->
<!DOCTYPE svg PUBLIC "-//W3C//DTD SVG 1.1//EN" "http://www.w3.org/Graphics/SVG/1.1/DTD/svg11.dtd">
<svg version="1.1" id="Layer_1" xmlns="http://www.w3.org/2000/svg" xmlns:xlink="http://www.w3.org/1999/xlink" x="0px" y="0px"
	 viewBox="0 0 80 80" enable-background="new 0 0 80 80" xml:space="preserve">
<g>
	<path fill="none" stroke="#205081" stroke-linejoin="round" stroke-miterlimit="10" d="M58.9,34.8c0,7.6-6.2,13.7-13.7,13.7
		c-7.6,0-13.7-6.1-13.7-13.7c0-7.6,6.2-13.7,13.7-13.7C52.7,21.1,58.9,27.3,58.9,34.8z"/>
	<circle fill="#FAE1A0" stroke="#205081" stroke-linejoin="round" stroke-miterlimit="10" cx="5.7" cy="17.7" r="5.2"/>
	<circle fill="#E9E9E9" stroke="#205081" stroke-linejoin="round" stroke-miterlimit="10" cx="74.3" cy="5.7" r="5.2"/>
	<circle fill="#A4B3C2" stroke="#205081" stroke-linejoin="round" stroke-miterlimit="10" cx="5.7" cy="74.3" r="5.2"/>
	<circle fill="#D8E3EF" stroke="#205081" stroke-linejoin="round" stroke-miterlimit="10" cx="45.1" cy="74.3" r="5.2"/>
	<line fill="none" stroke="#205081" stroke-linejoin="round" stroke-miterlimit="10" x1="9.3" y1="70.7" x2="35.5" y2="44.6"/>
	<line fill="none" stroke="#205081" stroke-linejoin="round" stroke-miterlimit="10" x1="54.9" y1="25.2" x2="70.7" y2="9.3"/>
	<line fill="none" stroke="#205081" stroke-linejoin="round" stroke-miterlimit="10" x1="10.3" y1="19.9" x2="32.5" y2="29.4"/>
	<line fill="none" stroke="#205081" stroke-linejoin="round" stroke-miterlimit="10" x1="69.4" y1="47" x2="57" y2="41.8"/>
	<line fill="none" stroke="#205081" stroke-linejoin="round" stroke-miterlimit="10" x1="45.1" y1="69.2" x2="45.1" y2="48.6"/>
	<circle fill="none" stroke="#205081" stroke-linejoin="round" stroke-miterlimit="10" cx="74.3" cy="48.6" r="5.2"/>
</g>
</svg>
